@startuml

Frontend <-> Discovery: Get list of project Addresses

box "Ethereum Blockchain" #LightBlue
	participant Discovery
	participant Contracts
end box

Frontend <-> Contracts: Get Project Info & Content Root

Frontend <-> "Gitlab / IPFS" as IPFS: Get Asset definition JSON

box "IPFS" #LightYellow
	participant IPFS
end box

Frontend <-> "Gitlab / IPFS" as IPFS: Get Assets 


@enduml
